cycler==0.10.0
Jinja2==2.10
kiwisolver==1.0.1
MarkupSafe==1.1.1
matplotlib==3.0.3
mpld3==0.3.1.dev1
numpy==1.16.2
pandas==0.24.2
pyparsing==2.3.1
python-dateutil==2.8.0
pytz==2018.9
scikit-learn==0.20.3
scipy==1.2.1
six==1.12.0
sklearn==0.0
torch==1.0.1.post2
